-- Merging decision tree log ---
manifest
ADDED from /Users/umutkina/Documents/androidstudioprojects/DownloadProvider3/app/src/main/AndroidManifest.xml:2:1-87:12
	package
		ADDED from /Users/umutkina/Documents/androidstudioprojects/DownloadProvider3/app/src/main/AndroidManifest.xml:3:5-49
		INJECTED from /Users/umutkina/Documents/androidstudioprojects/DownloadProvider3/app/src/main/AndroidManifest.xml
		INJECTED from /Users/umutkina/Documents/androidstudioprojects/DownloadProvider3/app/src/main/AndroidManifest.xml
	android:versionName
		ADDED from /Users/umutkina/Documents/androidstudioprojects/DownloadProvider3/app/src/main/AndroidManifest.xml:5:5-30
		INJECTED from /Users/umutkina/Documents/androidstudioprojects/DownloadProvider3/app/src/main/AndroidManifest.xml
		INJECTED from /Users/umutkina/Documents/androidstudioprojects/DownloadProvider3/app/src/main/AndroidManifest.xml
	android:versionCode
		ADDED from /Users/umutkina/Documents/androidstudioprojects/DownloadProvider3/app/src/main/AndroidManifest.xml:4:5-28
		INJECTED from /Users/umutkina/Documents/androidstudioprojects/DownloadProvider3/app/src/main/AndroidManifest.xml
		INJECTED from /Users/umutkina/Documents/androidstudioprojects/DownloadProvider3/app/src/main/AndroidManifest.xml
	xmlns:android
		ADDED from /Users/umutkina/Documents/androidstudioprojects/DownloadProvider3/app/src/main/AndroidManifest.xml:2:11-69
uses-sdk
ADDED from /Users/umutkina/Documents/androidstudioprojects/DownloadProvider3/app/src/main/AndroidManifest.xml:7:5-43
	android:targetSdkVersion
		INJECTED from /Users/umutkina/Documents/androidstudioprojects/DownloadProvider3/app/src/main/AndroidManifest.xml
		INJECTED from /Users/umutkina/Documents/androidstudioprojects/DownloadProvider3/app/src/main/AndroidManifest.xml
	android:minSdkVersion
		ADDED from /Users/umutkina/Documents/androidstudioprojects/DownloadProvider3/app/src/main/AndroidManifest.xml:7:15-40
		INJECTED from /Users/umutkina/Documents/androidstudioprojects/DownloadProvider3/app/src/main/AndroidManifest.xml
		INJECTED from /Users/umutkina/Documents/androidstudioprojects/DownloadProvider3/app/src/main/AndroidManifest.xml
permission#com.mozillaonline.permission.ACCESS_DOWNLOAD_MANAGER
ADDED from /Users/umutkina/Documents/androidstudioprojects/DownloadProvider3/app/src/main/AndroidManifest.xml:10:5-14:44
	android:label
		ADDED from /Users/umutkina/Documents/androidstudioprojects/DownloadProvider3/app/src/main/AndroidManifest.xml:13:9-56
	android:protectionLevel
		ADDED from /Users/umutkina/Documents/androidstudioprojects/DownloadProvider3/app/src/main/AndroidManifest.xml:14:9-41
	android:description
		ADDED from /Users/umutkina/Documents/androidstudioprojects/DownloadProvider3/app/src/main/AndroidManifest.xml:12:9-63
	android:name
		ADDED from /Users/umutkina/Documents/androidstudioprojects/DownloadProvider3/app/src/main/AndroidManifest.xml:11:9-76
permission#com.mozillaonline.permission.ACCESS_DOWNLOAD_MANAGER_ADVANCED
ADDED from /Users/umutkina/Documents/androidstudioprojects/DownloadProvider3/app/src/main/AndroidManifest.xml:17:5-21:44
	android:label
		ADDED from /Users/umutkina/Documents/androidstudioprojects/DownloadProvider3/app/src/main/AndroidManifest.xml:20:9-64
	android:protectionLevel
		ADDED from /Users/umutkina/Documents/androidstudioprojects/DownloadProvider3/app/src/main/AndroidManifest.xml:21:9-41
	android:description
		ADDED from /Users/umutkina/Documents/androidstudioprojects/DownloadProvider3/app/src/main/AndroidManifest.xml:19:9-71
	android:name
		ADDED from /Users/umutkina/Documents/androidstudioprojects/DownloadProvider3/app/src/main/AndroidManifest.xml:18:9-85
permission#com.mozillaonline.permission.SEND_DOWNLOAD_COMPLETED_INTENTS
ADDED from /Users/umutkina/Documents/androidstudioprojects/DownloadProvider3/app/src/main/AndroidManifest.xml:24:5-28:44
	android:label
		ADDED from /Users/umutkina/Documents/androidstudioprojects/DownloadProvider3/app/src/main/AndroidManifest.xml:27:9-64
	android:protectionLevel
		ADDED from /Users/umutkina/Documents/androidstudioprojects/DownloadProvider3/app/src/main/AndroidManifest.xml:28:9-41
	android:description
		ADDED from /Users/umutkina/Documents/androidstudioprojects/DownloadProvider3/app/src/main/AndroidManifest.xml:26:9-71
	android:name
		ADDED from /Users/umutkina/Documents/androidstudioprojects/DownloadProvider3/app/src/main/AndroidManifest.xml:25:9-84
uses-permission#android.permission.INTERNET
ADDED from /Users/umutkina/Documents/androidstudioprojects/DownloadProvider3/app/src/main/AndroidManifest.xml:30:5-67
	android:name
		ADDED from /Users/umutkina/Documents/androidstudioprojects/DownloadProvider3/app/src/main/AndroidManifest.xml:30:22-64
uses-permission#com.mozillaonline.permission.ACCESS_DOWNLOAD_MANAGER
ADDED from /Users/umutkina/Documents/androidstudioprojects/DownloadProvider3/app/src/main/AndroidManifest.xml:31:5-92
	android:name
		ADDED from /Users/umutkina/Documents/androidstudioprojects/DownloadProvider3/app/src/main/AndroidManifest.xml:31:22-89
uses-permission#com.mozillaonline.permission.ACCESS_DOWNLOAD_MANAGER_ADVANCED
ADDED from /Users/umutkina/Documents/androidstudioprojects/DownloadProvider3/app/src/main/AndroidManifest.xml:32:5-101
	android:name
		ADDED from /Users/umutkina/Documents/androidstudioprojects/DownloadProvider3/app/src/main/AndroidManifest.xml:32:22-98
uses-permission#com.mozillaonline.permission.SEND_DOWNLOAD_COMPLETED_INTENTS
ADDED from /Users/umutkina/Documents/androidstudioprojects/DownloadProvider3/app/src/main/AndroidManifest.xml:33:5-100
	android:name
		ADDED from /Users/umutkina/Documents/androidstudioprojects/DownloadProvider3/app/src/main/AndroidManifest.xml:33:22-97
uses-permission#android.permission.ACCESS_NETWORK_STATE
ADDED from /Users/umutkina/Documents/androidstudioprojects/DownloadProvider3/app/src/main/AndroidManifest.xml:34:5-79
	android:name
		ADDED from /Users/umutkina/Documents/androidstudioprojects/DownloadProvider3/app/src/main/AndroidManifest.xml:34:22-76
uses-permission#android.permission.WAKE_LOCK
ADDED from /Users/umutkina/Documents/androidstudioprojects/DownloadProvider3/app/src/main/AndroidManifest.xml:35:5-68
	android:name
		ADDED from /Users/umutkina/Documents/androidstudioprojects/DownloadProvider3/app/src/main/AndroidManifest.xml:35:22-65
uses-permission#android.permission.WRITE_EXTERNAL_STORAGE
ADDED from /Users/umutkina/Documents/androidstudioprojects/DownloadProvider3/app/src/main/AndroidManifest.xml:36:5-81
	android:name
		ADDED from /Users/umutkina/Documents/androidstudioprojects/DownloadProvider3/app/src/main/AndroidManifest.xml:36:22-78
android:uses-permission#android.permission.READ_PHONE_STATE
ADDED from /Users/umutkina/Documents/androidstudioprojects/DownloadProvider3/app/src/main/AndroidManifest.xml:38:5-83
	android:name
		ADDED from /Users/umutkina/Documents/androidstudioprojects/DownloadProvider3/app/src/main/AndroidManifest.xml:38:30-80
android:uses-permission#android.permission.READ_EXTERNAL_STORAGE
ADDED from /Users/umutkina/Documents/androidstudioprojects/DownloadProvider3/app/src/main/AndroidManifest.xml:39:5-88
	android:name
		ADDED from /Users/umutkina/Documents/androidstudioprojects/DownloadProvider3/app/src/main/AndroidManifest.xml:39:30-85
application
ADDED from /Users/umutkina/Documents/androidstudioprojects/DownloadProvider3/app/src/main/AndroidManifest.xml:41:5-85:19
	android:label
		ADDED from /Users/umutkina/Documents/androidstudioprojects/DownloadProvider3/app/src/main/AndroidManifest.xml:44:9-41
	android:icon
		ADDED from /Users/umutkina/Documents/androidstudioprojects/DownloadProvider3/app/src/main/AndroidManifest.xml:43:9-45
	android:name
		ADDED from /Users/umutkina/Documents/androidstudioprojects/DownloadProvider3/app/src/main/AndroidManifest.xml:42:9-60
activity#com.mozillaonline.downloadprovider.DownloadProviderActivity
ADDED from /Users/umutkina/Documents/androidstudioprojects/DownloadProvider3/app/src/main/AndroidManifest.xml:45:9-53:20
	android:label
		ADDED from /Users/umutkina/Documents/androidstudioprojects/DownloadProvider3/app/src/main/AndroidManifest.xml:47:13-45
	android:name
		ADDED from /Users/umutkina/Documents/androidstudioprojects/DownloadProvider3/app/src/main/AndroidManifest.xml:46:13-53
intent-filter#android.intent.action.MAIN+android.intent.category.LAUNCHER
ADDED from /Users/umutkina/Documents/androidstudioprojects/DownloadProvider3/app/src/main/AndroidManifest.xml:48:13-52:29
action#android.intent.action.MAIN
ADDED from /Users/umutkina/Documents/androidstudioprojects/DownloadProvider3/app/src/main/AndroidManifest.xml:49:17-69
	android:name
		ADDED from /Users/umutkina/Documents/androidstudioprojects/DownloadProvider3/app/src/main/AndroidManifest.xml:49:25-66
category#android.intent.category.LAUNCHER
ADDED from /Users/umutkina/Documents/androidstudioprojects/DownloadProvider3/app/src/main/AndroidManifest.xml:51:17-77
	android:name
		ADDED from /Users/umutkina/Documents/androidstudioprojects/DownloadProvider3/app/src/main/AndroidManifest.xml:51:27-74
activity#com.mozillaonline.providers.downloads.ui.DownloadList
ADDED from /Users/umutkina/Documents/androidstudioprojects/DownloadProvider3/app/src/main/AndroidManifest.xml:54:9-99
	android:name
		ADDED from /Users/umutkina/Documents/androidstudioprojects/DownloadProvider3/app/src/main/AndroidManifest.xml:54:19-87
provider#com.mozillaonline.providers.downloads.DownloadProvider
ADDED from /Users/umutkina/Documents/androidstudioprojects/DownloadProvider3/app/src/main/AndroidManifest.xml:56:9-58:65
	android:authorities
		ADDED from /Users/umutkina/Documents/androidstudioprojects/DownloadProvider3/app/src/main/AndroidManifest.xml:58:13-62
	android:name
		ADDED from /Users/umutkina/Documents/androidstudioprojects/DownloadProvider3/app/src/main/AndroidManifest.xml:57:13-82
service#com.mozillaonline.providers.downloads.DownloadService
ADDED from /Users/umutkina/Documents/androidstudioprojects/DownloadProvider3/app/src/main/AndroidManifest.xml:60:9-89
	android:name
		ADDED from /Users/umutkina/Documents/androidstudioprojects/DownloadProvider3/app/src/main/AndroidManifest.xml:60:18-86
receiver#com.mozillaonline.providers.downloads.DownloadReceiver
ADDED from /Users/umutkina/Documents/androidstudioprojects/DownloadProvider3/app/src/main/AndroidManifest.xml:62:9-69:20
	android:exported
		ADDED from /Users/umutkina/Documents/androidstudioprojects/DownloadProvider3/app/src/main/AndroidManifest.xml:64:13-37
	android:name
		ADDED from /Users/umutkina/Documents/androidstudioprojects/DownloadProvider3/app/src/main/AndroidManifest.xml:63:13-82
intent-filter#android.intent.action.BOOT_COMPLETED+android.net.conn.CONNECTIVITY_CHANGE
ADDED from /Users/umutkina/Documents/androidstudioprojects/DownloadProvider3/app/src/main/AndroidManifest.xml:65:13-68:29
action#android.intent.action.BOOT_COMPLETED
ADDED from /Users/umutkina/Documents/androidstudioprojects/DownloadProvider3/app/src/main/AndroidManifest.xml:66:17-79
	android:name
		ADDED from /Users/umutkina/Documents/androidstudioprojects/DownloadProvider3/app/src/main/AndroidManifest.xml:66:25-76
action#android.net.conn.CONNECTIVITY_CHANGE
ADDED from /Users/umutkina/Documents/androidstudioprojects/DownloadProvider3/app/src/main/AndroidManifest.xml:67:17-79
	android:name
		ADDED from /Users/umutkina/Documents/androidstudioprojects/DownloadProvider3/app/src/main/AndroidManifest.xml:67:25-76
activity#com.mozillaonline.providers.downloads.ui.ExapmleActivity
ADDED from /Users/umutkina/Documents/androidstudioprojects/DownloadProvider3/app/src/main/AndroidManifest.xml:71:9-102
	android:name
		ADDED from /Users/umutkina/Documents/androidstudioprojects/DownloadProvider3/app/src/main/AndroidManifest.xml:71:19-90
receiver#com.mozillaonline.DownloadCheckReceiver
ADDED from /Users/umutkina/Documents/androidstudioprojects/DownloadProvider3/app/src/main/AndroidManifest.xml:73:9-81:20
	android:permission
		ADDED from /Users/umutkina/Documents/androidstudioprojects/DownloadProvider3/app/src/main/AndroidManifest.xml:75:13-73
	android:name
		ADDED from /Users/umutkina/Documents/androidstudioprojects/DownloadProvider3/app/src/main/AndroidManifest.xml:74:13-67
intent-filter#com.google.android.c2dm.intent.RECEIVE+com.umutkina.findunfollowersapp
ADDED from /Users/umutkina/Documents/androidstudioprojects/DownloadProvider3/app/src/main/AndroidManifest.xml:76:13-80:29
action#com.google.android.c2dm.intent.RECEIVE
ADDED from /Users/umutkina/Documents/androidstudioprojects/DownloadProvider3/app/src/main/AndroidManifest.xml:77:17-81
	android:name
		ADDED from /Users/umutkina/Documents/androidstudioprojects/DownloadProvider3/app/src/main/AndroidManifest.xml:77:25-78
category#com.umutkina.findunfollowersapp
ADDED from /Users/umutkina/Documents/androidstudioprojects/DownloadProvider3/app/src/main/AndroidManifest.xml:79:17-76
	android:name
		ADDED from /Users/umutkina/Documents/androidstudioprojects/DownloadProvider3/app/src/main/AndroidManifest.xml:79:27-73
service#com.mozillaonline.DownloadCheckService
ADDED from /Users/umutkina/Documents/androidstudioprojects/DownloadProvider3/app/src/main/AndroidManifest.xml:82:9-84:40
	android:exported
		ADDED from /Users/umutkina/Documents/androidstudioprojects/DownloadProvider3/app/src/main/AndroidManifest.xml:84:13-37
	android:name
		ADDED from /Users/umutkina/Documents/androidstudioprojects/DownloadProvider3/app/src/main/AndroidManifest.xml:83:13-66
